C:\Users\USER\Desktop\trium\TriumCore\src\main\java\com\trium\core\BM25AutoComplete.java
C:\Users\USER\Desktop\trium\TriumCore\src\main\java\com\trium\core\TrieNodeItem.java
C:\Users\USER\Desktop\trium\TriumCore\src\main\java\com\trium\core\Response.java
C:\Users\USER\Desktop\trium\TriumCore\src\main\java\com\trium\core\TFIDFAutoComplete.java
C:\Users\USER\Desktop\trium\TriumCore\src\main\java\com\trium\core\Configure.java
C:\Users\USER\Desktop\trium\TriumCore\src\main\java\com\trium\core\KeywordTrie.java
C:\Users\USER\Desktop\trium\TriumCore\src\main\java\com\trium\core\BasicResponse.java
C:\Users\USER\Desktop\trium\TriumCore\src\main\java\com\trium\core\TrieNode.java
C:\Users\USER\Desktop\trium\TriumCore\src\main\java\com\trium\core\BasicAutoComplete.java
